{
    "count": 87,
    "next": "https://swapi.co/api/people/?format=json&page=2",
    "previous": null,
    "results": [{
        "name": "Luke Skywalker",
        "url": "https://swapi.co/api/people/1/"
    }, {
        "name": "C-3PO",
        "url": "https://swapi.co/api/people/2/"
    }, {
        "name": "R2-D2",
        "url": "https://swapi.co/api/people/3/"
    }, {
        "name": "Darth Vader",
        "url": "https://swapi.co/api/people/4/"
    }, {
        "name": "Leia Organa",
        "url": "https://swapi.co/api/people/5/"
    }, {
        "name": "Owen Lars",
        "url": "https://swapi.co/api/people/6/"
    }, {
        "name": "Beru Whitesun lars",
        "url": "https://swapi.co/api/people/7/"
    }, {
        "name": "R5-D4",
        "url": "https://swapi.co/api/people/8/"
    }, {
        "name": "Biggs Darklighter",
        "url": "https://swapi.co/api/people/9/"
    }, {
        "name": "Obi-Wan Kenobi",
        "url": "https://swapi.co/api/people/10/"
    }]
}